…
weather <- 
  read_csv("https://data.giss.nasa.gov/gistemp/tabledata_v4/NH.Ts+dSST.csv", #retrieving data 
           skip = 1, #skipping first line 
           na = "***") 

I have modified the data by adding skip and na, and we select the year and the twelve month variables from the dataset while deleting the rest as they are non-relevant.

Data Frame

tidyweather <- weather %>%  select(1:13) %>% pivot_longer(cols=2:13, names_to = "Month", values_to="delta")

tidyweather

## # A tibble: 1,704 × 3
##     Year Month delta
##    <dbl> <chr> <dbl>
##  1  1880 Jan   -0.34
##  2  1880 Feb   -0.5 
##  3  1880 Mar   -0.22
##  4  1880 Apr   -0.29
##  5  1880 May   -0.05
##  6  1880 Jun   -0.15
##  7  1880 Jul   -0.17
##  8  1880 Aug   -0.25
##  9  1880 Sep   -0.22
## 10  1880 Oct   -0.31
## # … with 1,694 more rows
…
